<?xml version="1.0" encoding="utf-8"?>
<!-- Generator: Adobe Illustrator 25.3.1, SVG Export Plug-In . SVG Version: 6.00 Build 0)  -->
<svg version="1.1" id="Layer_1" xmlns="http://www.w3.org/2000/svg" xmlns:xlink="http://www.w3.org/1999/xlink" x="0px" y="0px"
	 viewBox="0 0 44.5 15.8" style="enable-background:new 0 0 44.5 15.8;" xml:space="preserve">
<style type="text/css">
	.st0{fill:#008B39;}
	.st1{fill:none;stroke:#008B39;}
</style>
<path class="st0" d="M35.8,0.6v14.8L44.2,8L35.8,0.6z"/>
<path class="st0" d="M36.3,6.6h-9.8v3.1h9.8V6.6z"/>
<line class="st1" x1="20.9" y1="3.6" x2="20.9" y2="12.6"/>
<line class="st1" x1="15.9" y1="3.6" x2="15.9" y2="12.6"/>
<line class="st1" x1="10.9" y1="3.6" x2="10.9" y2="12.6"/>
<line class="st1" x1="5.9" y1="3.6" x2="5.9" y2="12.6"/>
<line class="st1" x1="0.9" y1="3.6" x2="0.9" y2="12.6"/>
</svg>
